<svg xmlns="http://www.w3.org/2000/svg" width="16" height="16" version="1.1">
 <defs>
  <style id="current-color-scheme" type="text/css">
   .ColorScheme-Text { color:#e6e6fa; } .ColorScheme-Highlight { color:#4285f4; }
  </style>
 </defs>
 <path style="fill:currentColor" class="ColorScheme-Text" d="M 8,1 C 4.134,1 1,4.134 1,8 1,11.866 4.134,15 8,15 11.866,15 15,11.866 15,8 15,4.134 11.866,1 8,1 Z M 7,3 H 9 V 9 H 7 Z M 8,10 C 8.552,10 9,10.448 9,11 9,11.552 8.552,12 8,12 7.448,12 7,11.552 7,11 7,10.448 7.448,10 8,10 Z"/>
</svg>
