<svg xmlns="http://www.w3.org/2000/svg" width="16" height="16" version="1.1">
 <defs>
  <style id="current-color-scheme" type="text/css">
   .ColorScheme-Text { color:#e6e6fa; } .ColorScheme-Highlight { color:#4285f4; }
  </style>
 </defs>
 <path style="fill:currentColor" class="ColorScheme-Text" d="M 8.0000001,-2.3425e-4 C 3.5680001,-2.3425e-4 5.0000001e-8,3.5677662 5.0000001e-8,7.9997662 5.0000001e-8,11.572735 2.319953,14.579894 5.541016,15.613047 v -1.662109 c -2.02505,0.44688 -2.4511719,-0.890625 -2.4511719,-0.890625 -0.33119,-0.85462 -0.808594,-1.082031 -0.808594,-1.082031 -0.66103,-0.45857 0.04883,-0.451172 0.04883,-0.451172 0.7307201,0.05219 1.1152341,0.763672 1.1152341,0.763672 0.649401,1.13032 1.704391,0.804594 2.1191409,0.615234 0.06615,-0.47773 0.2550711,-0.805404 0.462891,-0.990234 -1.6165,-0.1867 -3.017578,-1.220416 -3.017578,-4.0550158 0,-0.807401 0.586534,-1.867737 1.052234,-2.384438 -0.0751,-0.1871 -0.326088,-1.339321 0.07031,-2.357421 0,0 0.03819,-0.01202 0.117188,-0.01563 0.2369,-0.0111 0.7698,0.43835 1.8125,1.15625 0.629544,-0.180863 1.435033,-0.265432 1.938,-0.269532 0.567132,-0.0047 1.223838,0.09289 1.815614,0.269532 1.0429999,-0.7179 1.7093129,-1.169203 1.9453129,-1.158204 h 0.002 c 0.0789,0.0037 0.117187,0.01563 0.117188,0.01563 0.39732,1.01806 0.146905,2.172275 0.07227,2.359374 C 12.418904,5.9931282 13,7.0533642 13,7.8607662 c 0,2.8418198 -1.700866,3.8661458 -3.322266,4.0491558 0.261006,0.2284 0.326172,0.681284 0.326172,1.371094 0,0.83312 -0.0021,1.37464 -0.0039,1.71875 V 15.74 C 13.456574,14.855319 16,11.739682 16,7.9997662 16,3.5677662 12.432,-2.3425e-4 8.0000001,-2.3425e-4 Z"/>
</svg>
