<svg xmlns="http://www.w3.org/2000/svg" width="16" height="16" version="1.1">
 <defs>
  <style id="current-color-scheme" type="text/css">
   .ColorScheme-Text { color:#e6e6fa; } .ColorScheme-Highlight { color:#4285f4; }
  </style>
 </defs>
 <path style="fill:currentColor" class="ColorScheme-Text" d="m8.4648438 1.015625c-0.7550096-0.05083732-1.5268095 0.0214644-2.2871094 0.2265625-3.0412 0.8203925-5.1665934 3.5825304-5.1777344 6.7324219a1 1 0 0 0 0.0019531 0.0253906h-1.0019531l2 2 2-2h-1a1 1 0 0 0 0 -0.0175781c0.0079866-2.2580414 1.5171388-4.222437 3.6972656-4.8105469 2.1801267-0.5881099 4.4727134 0.3511449 5.6152344 2.2988281 1.142521 1.9476834 0.842814 4.4055318-0.734375 6.0214849-1.53625 1.574006-4.0817199 1.748333-6.09375 0.632812a1.0001221 1.0001221 0 1 0 -0.96875 1.75c2.7176521 1.506737 6.253078 1.309813 8.494141-0.986328 2.200122-2.254196 2.62112-5.7127382 1.027343-8.4296876-1.195332-2.0377123-3.307237-3.2908474-5.5722652-3.4433594zm-0.4804688 2.9707031a1.0001 1.0001 0 0 0 -0.984375 1.0136719v2.8632812a1 1 0 0 0 0.0644531 0.4980469 1 1 0 0 0 0.3320313 0.4492188l1.8964844 1.8964841a1 1 0 1 0 1.4140622 -1.4140622l-1.707031-1.7070313v-2.5859375a1 1 0 0 0 -1.015625 -1.0136719z"/>
</svg>
