<svg xmlns="http://www.w3.org/2000/svg" width="16" height="16" version="1.1">
 <defs>
  <style id="current-color-scheme" type="text/css">
   .ColorScheme-Text { color:#e6e6fa; } .ColorScheme-Highlight { color:#4285f4; }
  </style>
 </defs>
 <path style="fill:currentColor" class="ColorScheme-Text" d="m 7.5332031,1.0039062 c -0.584935,0.030324 -1.7158995,0.2973741 -2.3046875,1.2519532 0,0 -0.5442262,-0.1746451 0.089844,-1.171875 0,0 -1.7437507,-0.46124362 -2.6191406,0.9160156 H 1 v 8.769531 c 0,0 2.301895,5.087169 9.779297,4.103516 0,0 3.384176,-0.510165 2.941406,-3.681641 0,0 1.056121,-1.204757 1.207031,-2.738281 0.139469,-1.416281 0.122755,-2.5504409 -0.474609,-4.3859609 -0.0417,-0.127957 -0.218789,-0.1183142 -0.246094,0.013672 -0.20939,1.012532 -0.965674,3.5264491 -2.730469,4.5617421 0,0 0.928844,-1.5271942 0.421876,-3.6084832 -0.01625,-0.06675 -0.109443,-0.060467 -0.117188,0.00781 -0.07435,0.660612 -0.338649,1.9050066 -1.240234,2.1924676 0,0 -0.38472,-2.1092551 -2.8300785,-3.4863281 0,0 0.2109744,-0.6576046 0.2714844,-1.1269531 C 8.0427519,2.1515487 7.832467,1.932074 7.953125,1.7128906 c 0.12084,-0.219188 0.6035156,-0.53125 0.6035156,-0.53125 0,0 -0.4385025,-0.20805707 -1.0234375,-0.1777344 z M 8.7011719,7.4472656 C 9.1539904,7.4175756 9.5265057,7.8040345 9.4980469,8.2734375 9.4742639,8.6603105 9.1722537,8.9736489 8.7988281,8.9980469 8.3460156,9.0277369 7.9732732,8.64128 8.0019531,8.171875 8.0254961,7.784779 8.3277533,7.4716626 8.7011719,7.4472656 Z m 3.3691401,4.5449224 c 0.102461,0.0081 0.214274,0.03571 0.306641,0.109374 0.03069,0.02453 0.137038,0.110156 0.121094,0.210938 -0.01516,0.09601 -0.131968,0.14977 -0.175781,0.169922 -0.134459,0.06193 -0.187834,0.01161 -0.363282,0.06055 -0.04279,0.01192 -0.172097,0.04822 -0.285156,0.148437 -0.09206,0.08172 -0.06971,0.113045 -0.154297,0.189453 -0.08318,0.07531 -0.261342,0.185646 -0.386719,0.13086 -0.119723,-0.05223 -0.12884,-0.226419 -0.130859,-0.259766 -0.01412,-0.237472 0.181097,-0.41529 0.263672,-0.490234 0.08479,-0.07677 0.276817,-0.222753 0.5625,-0.259766 0.04835,-0.0063 0.139728,-0.01786 0.242187,-0.0098 z"/>
</svg>
