<svg xmlns="http://www.w3.org/2000/svg" width="24" height="24" version="1.1">
 <defs>
  <style id="current-color-scheme" type="text/css">
   .ColorScheme-Text { color:#e6e6fa; } .ColorScheme-Highlight { color:#4285f4; }
  </style>
 </defs>
 <g transform="translate(-104 -888.36)">
  <path style="fill:currentColor" class="ColorScheme-Text" d="m106 896.36v8l4-4z"/>
 </g>
</svg>
