<svg xmlns="http://www.w3.org/2000/svg" width="24" height="24" version="1.1">
 <defs>
  <style id="current-color-scheme" type="text/css">
   .ColorScheme-Text { color:#e6e6fa; } .ColorScheme-Highlight { color:#4285f4; }
  </style>
 </defs>
 <path style="fill:currentColor" class="ColorScheme-Text" d="m8.5 4c-1.933 0-3.5 1.567-3.5 3.5s1.567 3.5 3.5 3.5c0.2604-0.001 0.5198-0.031 0.7734-0.09l1.7266 2.59c-2.25 3.5 1 6.5 1 6.5s3.25-3 1-6.5l1.7285-2.5898c0.254 0.059 0.512 0.089 0.772 0.09 1.933 0 3.5-1.567 3.5-3.5s-1.567-3.5-3.5-3.5-3.5 1.567-3.5 3.5c0.0012 0.80608 0.28061 1.587 0.79102 2.2109l-0.791 1.2891-0.789-1.2871c0.51-0.6247 0.789-1.4064 0.789-2.2129 0-1.933-1.567-3.5-3.5-3.5zm0 2c0.8284 0 1.5 0.6716 1.5 1.5s-0.6716 1.5-1.5 1.5-1.5-0.6716-1.5-1.5 0.6716-1.5 1.5-1.5zm7 0c0.828 0 1.5 0.6716 1.5 1.5s-0.672 1.5-1.5 1.5-1.5-0.6716-1.5-1.5 0.672-1.5 1.5-1.5z"/>
</svg>
