<svg xmlns="http://www.w3.org/2000/svg" width="24" height="24" version="1.1">
 <defs>
  <style id="current-color-scheme" type="text/css">
   .ColorScheme-Text { color:#e6e6fa; } .ColorScheme-Highlight { color:#4285f4; }
  </style>
 </defs>
 <path style="fill:currentColor" class="ColorScheme-Text" d="M 12.016,4 C 11.874,4.0005 11.726,4.1324 11.518,4.4004 L 7.1799,10.721 C 5.6876,12.894 5.7036,15.242 6.7093,17.016 7.7148,18.789 9.6947,20 12.002,20 14.309,20 16.286,18.789 17.291,17.016 18.296,15.242 18.311,12.894 16.82,10.719 L 12.48,4.3887 C 12.293,4.1312 12.157,3.9995 12.016,4 Z M 12.004,5.7129 15.666,11.324 C 16.557,12.706 16.729,14.014 15.246,15.191 15.069,15.342 14.846,15.484 14.602,15.613 14.045,15.86 13.458,16.12 12.803,16.195 12.537,16.241 12.256,16.269 11.945,16.256 11.912,16.252 11.878,16.25 11.844,16.25 H 11.838 C 10.845,16.25 10.025,15.424 10.025,14.334 10.026,13.366 10.691,12.583 11.562,12.441 11.729,12.409 11.902,12.377 12.084,12.338 12.817,12.097 13.134,11.068 12.439,10.574 11.946,10.224 11.371,10.031 10.795,10.004 10.087,9.971 9.3918,10.197 8.7951,10.617 Z"/>
</svg>
