<svg xmlns="http://www.w3.org/2000/svg" width="24" height="24" version="1.1">
 <defs>
  <style id="current-color-scheme" type="text/css">
   .ColorScheme-Text { color:#e6e6fa; } .ColorScheme-Highlight { color:#4285f4; }
  </style>
 </defs>
 <g transform="translate(-593 -955.36)">
  <path style="fill:currentColor" class="ColorScheme-Text" d="m607.5 962.36a1.5 1.5 0 0 0 -1.5 1.5 1.5 1.5 0 0 0 1.5 1.5 1.5 1.5 0 0 0 1.5 -1.5 1.5 1.5 0 0 0 -1.5 -1.5zm-4.2754 6.0371c-0.68002-0.0174-1.4115 0.12078-2.2559 0.46484-0.91093 0.37116-1.9626 1.0259-3.1641 1.9805 1.3341 2.761 4.1289 4.5165 7.1953 4.5195 2.3257-0.001 4.5358-1.0142 6.0547-2.7754-2.4044-1.3458-4.1506-2.9745-5.8867-3.7246-0.63477-0.27427-1.2634-0.4474-1.9434-0.46484z"/>
  <path opacity=".3" style="fill:currentColor" class="ColorScheme-Text" d="m605 959.36c-4.4183 0-8 3.5817-8 8 0.003 0.84917 0.14173 1.6924 0.41016 2.498 1.1664-0.90522 2.2118-1.5295 3.1797-1.9238 0.95209-0.38794 1.8339-0.54198 2.6582-0.52148 0.82427 0.0205 1.5924 0.21643 2.3164 0.52929 2.0163 0.87121 3.7728 2.5185 6.1074 3.8242 0.86472-1.307 1.3265-2.8391 1.3281-4.4062 0-4.4183-3.5817-8-8-8zm2.5 1.998a2.5 2.5 0 0 1 2.5 2.5 2.5 2.5 0 0 1 -2.5 2.5 2.5 2.5 0 0 1 -2.5 -2.5 2.5 2.5 0 0 1 2.5 -2.5z"/>
 </g>
</svg>
