<svg xmlns="http://www.w3.org/2000/svg" width="24" height="24" version="1.1">
 <defs>
  <style id="current-color-scheme" type="text/css">
   .ColorScheme-Text { color:#e6e6fa; } .ColorScheme-Highlight { color:#4285f4; }
  </style>
 </defs>
 <path style="fill:currentColor" class="ColorScheme-Text" d="m 5,3.9999998 c -0.554,0 -1,0.446 -1,1 V 19 c 0,0.554 0.446,1 1,1 h 14 c 0.554,0 1,-0.446 1,-1 V 4.9999998 c 0,-0.554 -0.446,-1 -1,-1 h -2 v 3.199219 c 0,0.4432 -0.372318,0.800781 -0.833984,0.800781 H 7.833984 C 7.372318,7.9999998 7,7.6424188 7,7.1992188 v -3.199219 z m 3,1 v 1 h 3 v -1 z m 5,0 v 1 h 3 v -1 z M 8,16 h 3 c 0.554,0 1,0.446 1,1 v 1 1 h -1 v -2 h -1 v 2 H 9 V 17 H 8 v 2 H 7 v -1 -1 c 0,-0.554 0.446,-1 1,-1 z m 8,0 h 2 c 0.554,0 1,0.446 1,1 v 1 c 0,0.554 -0.446,1 -1,1 h -2 c -0.554,0 -1,-0.446 -1,-1 v -1 c 0,-0.554 0.446,-1 1,-1 z m -2.5,1 C 13.777,17 14,17.223 14,17.5 14,17.777 13.777,18 13.5,18 13.223,18 13,17.777 13,17.5 13,17.223 13.223,17 13.5,17 Z m 2.5,0 v 1 h 2 v -1 z"/>
</svg>
