<svg xmlns="http://www.w3.org/2000/svg" width="24" height="24" version="1.1">
 <defs>
  <style id="current-color-scheme" type="text/css">
   .ColorScheme-Text { color:#e6e6fa; } .ColorScheme-Highlight { color:#4285f4; }
  </style>
 </defs>
 <path style="fill:currentColor" class="ColorScheme-Text" d="m11.5 3.9642c-2.9655 0-5.3691 2.3868-5.4648 5.3301-1.7745 0.62857-3.0504 2.2641-3.0352 4.209 0.00185 2.1023 1.4977 3.7986 3.457 4.2832-0.077555 0.61008-0.13064 1.2184-0.38281 1.834a1.0001 1.0001 0 0 0 1.1602 1.3516c2.1096-0.51011 3.784-1.5879 5.1387-2.9727h3.627c2.7496 0 5-2.2504 5-5 0-2.4896-1.8756-4.4804-4.2656-4.8516-0.57988-2.2214-2.4454-3.8422-4.75-4.0566a1.0001 1.0001 0 0 0 -0.484 -0.1268zm1.5 9.0352h3c0.554 0 1 0.446 1 1s-0.446 1-1 1h-3c-0.554 0-1-0.446-1-1s0.446-1 1-1z"/>
</svg>
