<svg xmlns="http://www.w3.org/2000/svg" width="24" height="24" version="1.1">
 <defs>
  <style id="current-color-scheme" type="text/css">
   .ColorScheme-Text { color:#e6e6fa; } .ColorScheme-Highlight { color:#4285f4; }
  </style>
 </defs>
 <g>
  <path style="fill:currentColor" class="ColorScheme-Text" d="m12 4a8 8 0 0 0 -8 8 8 8 0 0 0 8 8 8 8 0 0 0 8 -8 8 8 0 0 0 -8 -8zm0 2a6 6 0 0 1 4.486 2.0234 1.5 1.5 0 0 1 0.264 -0.0234 1.5 1.5 0 0 1 1.5 1.5 1.5 1.5 0 0 1 -0.434 1.053 6 6 0 0 1 0.184 1.447 6 6 0 0 1 -1.174 3.553 1.5 1.5 0 0 1 0.174 0.697 1.5 1.5 0 0 1 -1.5 1.5 1.5 1.5 0 0 1 -0.939 -0.332 6 6 0 0 1 -2.561 0.582 6 6 0 0 1 -5.1914 -3.002 1.5 1.5 0 0 1 -0.0586 0.002 1.5 1.5 0 0 1 -1.5 -1.5 1.5 1.5 0 0 1 0.75978 -1.3008 6 6 0 0 1 -0.0098 -0.19921 6 6 0 0 1 6 -6zm0 1a5 5 0 0 0 -5 5 5 5 0 0 0 0.0000029 0.02148 1.5 1.5 0 0 1 1.0645 0.76172l3.4609-0.55273a1.5 1.5 0 0 1 1.4746 -1.2305 1.5 1.5 0 0 1 0.79102 0.22656l1.543-1.2338a1.5 1.5 0 0 1 -0.084 -0.4922 1.5 1.5 0 0 1 0.352 -0.9648 5 5 0 0 0 -3.602 -1.5352zm3.959 3.7734-1.543 1.2344a1.5 1.5 0 0 1 0.08399 0.49219 1.5 1.5 0 0 1 -0.30078 0.89844l0.93359 1.3984a1.5 1.5 0 0 1 0.367 -0.046 1.5 1.5 0 0 1 0.59 0.121 5 5 0 0 0 0.91 -2.871 5 5 0 0 0 -0.10742 -1.0078 1.5 1.5 0 0 1 -0.14258 0.0078 1.5 1.5 0 0 1 -0.79102 -0.22656zm-4.2734 2.4434-3.4609 0.55469a1.5 1.5 0 0 1 -0.47852 0.84766 5 5 0 0 0 4.2539 2.3809 5 5 0 0 0 2.0332 -0.43945 1.5 1.5 0 0 1 -0.0332 -0.31055 1.5 1.5 0 0 1 0.30078 -0.89844l-0.93359-1.3984a1.5 1.5 0 0 1 -0.36719 0.04687 1.5 1.5 0 0 1 -1.3145 -0.7832z"/>
 </g>
</svg>
