<svg xmlns="http://www.w3.org/2000/svg" width="16" height="16" version="1.1">
 <defs>
  <style id="current-color-scheme" type="text/css">
   .ColorScheme-Text { color:#e6e6fa; } .ColorScheme-Highlight { color:#4285f4; }
  </style>
 </defs>
 <path style="fill:currentColor" class="ColorScheme-Text" d="M 0,1 V 15 H 4 V 1 Z M 10,1 V 5 H 15 V 1 Z M 5,2 V 3 H 9 V 2 Z M 12,6 V 10 H 13 V 6 Z M 10,11 V 15 H 15 V 11 Z M 5,13 V 14 H 9 V 13 Z"/>
</svg>
