<svg xmlns="http://www.w3.org/2000/svg" width="16" height="16" version="1.1">
 <defs>
  <style id="current-color-scheme" type="text/css">
   .ColorScheme-Text { color:#e6e6fa; } .ColorScheme-Highlight { color:#4285f4; }
  </style>
 </defs>
 <path style="fill:currentColor" class="ColorScheme-Text" d="M 2,13 H 14 V 15 H 2 Z M 4,2 V 4 H 10 C 10,4 11,4 11,5 V 6 H 6 C 3,6 3,9 3,9 3,9 3,12 6,12 H 13 V 5 C 13,2 10,2 10,2 Z M 6,8 H 11 V 10 H 6 C 5,10 5,9 5,9 5,9 5,8 6,8 Z"/>
</svg>
