<svg xmlns="http://www.w3.org/2000/svg" width="16" height="16" version="1.1">
 <defs>
  <style id="current-color-scheme" type="text/css">
   .ColorScheme-Text { color:#e6e6fa; } .ColorScheme-Highlight { color:#4285f4; }
  </style>
 </defs>
 <g transform="translate(-4,-3)">
  <path style="fill:currentColor" class="ColorScheme-Text" d="M 12.5,3 C 8,3 5.5,5.5 5.5,9 H 10.5 V 8 C 10.5,6.5 12,6.5 12,6.5 12,6.5 13.5,6.5 13.5,8 13.5,9.5 9,10.5 9,14 H 14 C 14,12 18.5,11 18.5,7.5 18.5,6 17,3 12.5,3 Z M 9,15 V 19 H 14 V 15 Z"/>
 </g>
</svg>
