<svg xmlns="http://www.w3.org/2000/svg" width="16" height="16" version="1.1">
 <defs>
  <style id="current-color-scheme" type="text/css">
   .ColorScheme-Text { color:#e6e6fa; } .ColorScheme-Highlight { color:#4285f4; }
  </style>
 </defs>
 <path style="fill:currentColor" class="ColorScheme-Text" d="M 0,5 C 4,5 6,7 8,7 10,7 11,5 16,5 V 10 C 11,10 10,8 8,8 6,8 4,10 0,10 Z"/>
</svg>
