<svg xmlns="http://www.w3.org/2000/svg" width="16" height="16" version="1.1">
 <defs>
  <style id="current-color-scheme" type="text/css">
   .ColorScheme-Text { color:#e6e6fa; } .ColorScheme-Highlight { color:#4285f4; }
  </style>
 </defs>
 <path style="fill:currentColor" class="ColorScheme-Text" d="M 0,7 C 4,7 6,5 8,5 10,5 11,7 16,7 V 8 C 11,8 10,10 8,10 6,10 4,8 0,8 Z"/>
</svg>
