<svg xmlns="http://www.w3.org/2000/svg" width="16" height="16">
 <defs>
  <style id="current-color-scheme" type="text/css">
   .ColorScheme-Text { color:#e6e6fa; } .ColorScheme-Highlight { color:#4285f4; }
  </style>
 </defs>
 <path style="fill:currentColor" class="ColorScheme-Text" d="M 14.990234 0.49414062 A 0.50005 0.50005 0 0 0 14.646484 0.64453125 L 8.7910156 6.5 L 6.5 6.5 L 6.5 7.90625 L 0.86328125 9.5175781 A 0.50005 0.50005 0 1 0 1.1367188 10.478516 L 6.2832031 9.0078125 L 0.64648438 14.644531 A 0.50005 0.50005 0 1 0 1.3535156 15.351562 L 7.2050781 9.5 L 9.5 9.5 L 9.5 8.0898438 L 15.136719 6.4785156 A 0.50005 0.50005 0 0 0 14.996094 5.4960938 A 0.50005 0.50005 0 0 0 14.863281 5.5175781 L 9.7167969 6.9882812 L 15.353516 1.3515625 A 0.50005 0.50005 0 0 0 14.990234 0.49414062 z"/>
</svg>
