<svg xmlns="http://www.w3.org/2000/svg" width="16" height="16" version="1.1">
 <defs>
  <style id="current-color-scheme" type="text/css">
   .ColorScheme-Text { color:#e6e6fa; } .ColorScheme-Highlight { color:#4285f4; }
  </style>
 </defs>
 <path style="fill:currentColor" class="ColorScheme-Text" d="M 11,5 A 3,3 0 0 1 8,8 3,3 0 0 1 5,5 3,3 0 0 1 8,2 3,3 0 0 1 11,5 Z M 8,9 C 2,9 2,13 2,13 V 14 H 14 V 13 C 14,13 14,9 8,9 Z"/>
</svg>
