<svg xmlns="http://www.w3.org/2000/svg" width="16" height="16" viewBox="0 0 16 16">
 <defs>
  <style id="current-color-scheme" type="text/css">
   .ColorScheme-Text { color:#e6e6fa; } .ColorScheme-Highlight { color:#4285f4; }
  </style>
 </defs>
 <path style="fill:currentColor" class="ColorScheme-Text" d="M 1 1 L 1 7 L 9 7 L 9 1 L 1 1 z M 11 1 L 11 7 L 15 7 L 15 1 L 11 1 z M 1 9 L 1 15 L 15 15 L 15 9 L 1 9 z"/>
</svg>
