<svg xmlns="http://www.w3.org/2000/svg" width="16" height="16" version="1.1">
 <defs>
  <style id="current-color-scheme" type="text/css">
   .ColorScheme-Text { color:#e6e6fa; } .ColorScheme-Highlight { color:#4285f4; }
  </style>
 </defs>
 <path style="fill:currentColor" class="ColorScheme-Text" d="M 12,9 V 12 H 9 V 14 H 13 C 14,14 14,13 14,13 V 9 Z M 2,9 V 13 C 2,13 2,14 3,14 H 7 V 12 H 4 V 9 Z M 9,2 V 4 H 12 V 7 H 14 V 3 C 14,3 14,2 13,2 Z M 3,2 C 2,2 2,3 2,3 V 7 H 4 V 4 H 7 V 2 Z M 10,6 V 10 L 12,8 Z M 6,6 4,8 6,10 Z M 7,5 V 11 H 9 V 5 Z"/>
</svg>
