<svg xmlns="http://www.w3.org/2000/svg" width="64" height="64" version="1.1">
 <rect style="opacity:.2" width="50" height="32" x="7" y="24" rx="2.5" ry="2.5"/>
 <path style="fill:#432c72" d="m7 44.5c0 1.385 1.115 2.5 2.5 2.5h45c1.385 0 2.5-1.115 2.5-2.5v-27c0-1.385-1.115-2.5-2.5-2.5h-25.5v-2.5c0-1.385-1.115-2.5-2.5-2.5h-17c-1.385 0-2.5 1.115-2.5 2.5"/>
 <rect style="opacity:.2" width="50" height="32" x="7" y="22" rx="2.5" ry="2.5"/>
 <rect style="fill:#e4e4e4" width="44" height="20" x="10" y="18" rx="2.5" ry="2.5"/>
 <rect style="fill:#432c72" width="50" height="32" x="7" y="23" rx="2.5" ry="2.5"/>
 <path style="opacity:.1;fill:#ffffff" d="m9.5 10c-1.385 0-2.5 1.115-2.5 2.5v1c0-1.385 1.115-2.5 2.5-2.5h17c1.385 0 2.5 1.115 2.5 2.5v-1c0-1.385-1.115-2.5-2.5-2.5zm19.5 5v1h25.5c1.39 0 2.5 1.115 2.5 2.5v-1c0-1.385-1.11-2.5-2.5-2.5z"/>
 <path style="fill:#1A1B26" d="m25 31c-4 0-4 2-4 2v8s0-2 4-2 6 4 6 4v-8s-2-4-6-4zm14 0c-4 0-6 4-6 4v8s2-4 6-4 4 2 4 2v-8s0-2-4-2zm-14 10c-4 0-4 2-4 2v2s0-2 4-2 6 4 6 4v-2s-2-4-6-4zm14 0c-4 0-6.010128 3.985376-6 4v2s2-4 6-4 4 2 4 2v-2s0-2-4-2z"/>
</svg>
