<svg xmlns="http://www.w3.org/2000/svg" width="32" height="32" version="1">
 <rect style="opacity:.2" width="25" height="16" x="3" y="12" rx="1.25" ry="1.25"/>
 <path style="fill:#432c72" d="m3 21.75c0 0.692 0.5575 1.25 1.25 1.25h22.5c0.692 0 1.25-0.558 1.25-1.25v-13.5c0-0.6925-0.558-1.25-1.25-1.25h-12.75v-0.75c0-0.6925-0.557-1.25-1.25-1.25h-8.5c-0.6925 0-1.25 0.5575-1.25 1.25"/>
 <rect style="opacity:.2" width="25" height="16" x="3" y="10" rx="1.25" ry="1.25"/>
 <rect style="fill:#e4e4e4" width="21" height="10" x="5" y="9" rx="1.25" ry="1.25"/>
 <rect style="fill:#432c72" width="25" height="16" x="3" y="11" rx="1.25" ry="1.25"/>
 <path style="fill:#ffffff;opacity:.1" d="m4.25 5c-0.6925 0-1.25 0.5575-1.25 1.25v1c0-0.6925 0.5575-1.25 1.25-1.25h8.5c0.693 0 1.25 0.5575 1.25 1.25v0.75h12.75c0.692 0 1.25 0.5575 1.25 1.25v-1c0-0.6925-0.558-1.25-1.25-1.25h-12.75v-0.75c0-0.6925-0.557-1.25-1.25-1.25h-8.5z"/>
 <g transform="translate(7,11.00002)">
  <path style="fill:#1A1B26" d="m9.0056 1.00002-2.0056 0.3989v8.5128l1.9944-0.3116v-3.6l2.8056 4 2.1886-1.00012-2.9886-3.39988 3.0114-3.6-2.2114-1.00014-2.8056 4.20014v-4.20014z"/>
  <path style="fill:#1A1B26" d="m4.28125 4.2011719c-0.0246 3e-3 -0.051712 0.00874-0.070312 0.027344l-0.8535161 0.847656c-0.035792 0.0357-0.039984 0.089612-0.013672 0.1328125l0.9082031 1.4882812c-0.213336 0.346448-0.3789944 0.72368-0.4902343 1.125l-1.6738281 0.3457032c-0.05084 0.0104-0.0878906 0.0593281-0.0878906 0.1113281v1.1972656c0 0.0507 0.038572 0.093769 0.087891 0.1054687l1.6230469 0.390625c0.102124 0.4515198 0.2747303 0.8766718 0.5039063 1.2636718l-0.9453126 1.429688c-0.02868 0.0435-0.023316 0.101771 0.013672 0.138672l0.8535157 0.847656c0.036 0.0357 0.091566 0.03977 0.1347656 0.01367l1.4765625-0.890625c0.36468 0.217976 0.7624668 0.384786 1.1855469 0.490234l0.3457031 1.646484c0.0107995 0.050802 0.0530682 0.087893 0.1054682 0.087893h1.2070313c0.0504 0 0.093469-0.03313 0.1054687-0.08203l0.4101563-1.658203c0.42644-0.110472 0.8235331-0.288804 1.1894531-0.513672l1.482422 0.964844c0.0438 0.0282 0.101472 0.02263 0.138672-0.01367l0.849609-0.845704c0.036-0.0357 0.04398-0.09186 0.01758-0.134765l-0.580078-0.947266-0.189453 0.05859c-0.0276 0.0084-0.05802-0.0036-0.07422-0.02734 0 0-0.179449-0.244084-0.322265-0.4375-0.05957-0.09064-0.550829-0.687764-0.890625-1.121093a3 3 0 0 1-2.728517 1.757809 3 3 0 0 1-3-3 3 3 0 0 1 1.4003906-2.5351562v-1.5898438c-0.22315 0.082948-0.3698787 0.1843413-0.5742187 0.3007812l-1.4765625-0.9589843c-0.0219-0.0144-0.044059-0.018025-0.068359-0.015625z"/>
 </g>
</svg>
