<svg xmlns="http://www.w3.org/2000/svg" width="32" height="32" version="1">
 <rect style="opacity:0.2" width="25" height="16" x="3" y="12" rx="1.25" ry="1.25"/>
 <path style="fill:#432c72" d="M 3,21.75 C 3,22.442 3.5575,23 4.25,23 H 26.75 C 27.442,23 28,22.442 28,21.75 V 8.25 C 28,7.5575 27.442,7 26.75,7 H 14 V 6.25 C 14,5.5575 13.443,5 12.75,5 H 4.25 C 3.5575,5 3,5.5575 3,6.25"/>
 <rect style="opacity:0.2" width="25" height="16" x="3" y="10" rx="1.25" ry="1.25"/>
 <rect style="fill:#e4e4e4" width="21" height="10" x="5" y="9" rx="1.25" ry="1.25"/>
 <rect style="fill:#432c72" width="25" height="16" x="3" y="11" rx="1.25" ry="1.25"/>
 <path style="opacity:0.1;fill:#ffffff" d="M 4.25 5 C 3.5575 5 3 5.5575 3 6.25 L 3 7.25 C 3 6.5575 3.5575 6 4.25 6 L 12.75 6 C 13.443 6 14 6.5575 14 7.25 L 14 8 L 26.75 8 C 27.442 8 28 8.5575 28 9.25 L 28 8.25 C 28 7.5575 27.442 7 26.75 7 L 14 7 L 14 6.25 C 14 5.5575 13.443 5 12.75 5 L 4.25 5 z"/>
 <g>
  <path style="fill:#1A1B26" d="M 15 11 L 15 12 L 16 12 L 16 11 L 15 11 z M 15 12 L 14 12 L 14 13 L 15 13 L 15 12 z M 15 13 L 15 14 L 16 14 L 16 13 L 15 13 z M 15 14 L 14 14 L 14 15 L 15 15 L 15 14 z M 15 15 L 15 16 C 15.552 16 16 15.5 16 15 L 15 15 z"/>
  <path style="fill:#1A1B26" d="M 15,16 C 13.895,16 13,16.9 13,18 V 22 C 13,23.1 13.895,24 15,24 16.105,24 17,23.1 17,22 V 18 C 17,16.9 16.105,16 15,16 Z M 15,17 C 15.552,17 16,17.4 16,18 16,18.5 15.552,19 15,19 14.448,19 14,18.5 14,18 14,17.4 14.448,17 15,17 Z M 15,20 C 15.552,20 16,20.4 16,21 V 22 C 16,22.5 15.552,23 15,23 14.448,23 14,22.5 14,22 V 21 C 14,20.4 14.448,20 15,20 Z"/>
 </g>
</svg>
