<svg xmlns="http://www.w3.org/2000/svg" width="22" height="22" viewBox="0 0 22 22">
 <defs>
  <style id="current-color-scheme" type="text/css">
   .ColorScheme-Text { color:#e6e6fa; } .ColorScheme-Highlight { color:#4285f4; }
  </style>
 </defs>
 <path style="fill:currentColor" class="ColorScheme-Text" d="M 4 1 L 4 15 L 6 15 L 6 1 L 4 1 z M 8 2 L 8 7 L 15 7 L 15 2 L 8 2 z M 1 9 L 1 14 L 3 14 L 3 9 L 1 9 z M 8 9 L 8 14 L 13 14 L 13 9 L 8 9 z" transform="translate(3 3)"/>
</svg>
