<svg xmlns="http://www.w3.org/2000/svg" width="22" height="22" version="1.1">
 <defs>
  <style id="current-color-scheme" type="text/css">
   .ColorScheme-Text { color:#e6e6fa; } .ColorScheme-Highlight { color:#4285f4; }
  </style>
 </defs>
 <path style="opacity:0.3;fill:currentColor" class="ColorScheme-Text" d="M 5,4 C 5,4 4,4 4,5 V 8 C 4,7 5,7 5,7 h 5 l 2,2 h 5 c 0,0 1,0 1,1 V 7 C 18,6 17,6 17,6 H 12 L 10,4 Z"/>
 <path style="fill:currentColor" class="ColorScheme-Text" d="M 5,8 C 5,8 4,8 4,9 v 1.761719 A 4.5,4.5 0 0 1 6.5,10 4.5,4.5 0 0 1 11,14.5 4.5,4.5 0 0 1 10.240234,17 H 17 c 0,0 1,0 1,-1 v -5 c 0,-1 -1,-1 -1,-1 H 12 L 10,8 Z m 1.5,3 A 3.4999999,3.4999999 0 0 0 3,14.5 3.4999999,3.4999999 0 0 0 6.5,18 3.4999999,3.4999999 0 0 0 10,14.5 3.4999999,3.4999999 0 0 0 6.5,11 Z M 6,12 h 1 v 2 h 2 v 1 H 7 6 Z"/>
</svg>
