<svg xmlns="http://www.w3.org/2000/svg" width="22" height="22" viewBox="0 0 22 22">
 <defs>
  <style id="current-color-scheme" type="text/css">
   .ColorScheme-Text { color:#e6e6fa; } .ColorScheme-Highlight { color:#4285f4; }
  </style>
 </defs>
 <path style="fill:currentColor" class="ColorScheme-Text" d="M 3 3.0039062 L 3 7.0039062 L 7 7.0039062 L 7 3.0039062 L 3 3.0039062 z M 9 3.0039062 L 9 7.0039062 L 13 7.0039062 L 13 3.0039062 L 9 3.0039062 z M 3 9.0039062 L 3 13.003906 L 7 13.003906 L 7 9.0039062 L 3 9.0039062 z M 9 9.0039062 L 9 13.003906 L 13 13.003906 L 13 9.0039062 L 9 9.0039062 z" transform="translate(3 3)"/>
</svg>
