<svg xmlns="http://www.w3.org/2000/svg" width="22" height="22" version="1.1">
 <defs>
  <style id="current-color-scheme" type="text/css">
   .ColorScheme-Text { color:#e6e6fa; } .ColorScheme-Highlight { color:#4285f4; }
  </style>
 </defs>
 <g>
  <path style="fill:currentColor;fill-rule:evenodd" class="ColorScheme-Text" d="m 3.0004243,16.203 0,0.547 c 0,1.212 1.0381,2.25 2.25,2.25 l 11.4999997,0 c 1.212,0 2.25,-1.038 2.25,-2.25 l 0,-0.547 c -0.532,0.485 -1.225,0.797 -2,0.797 L 5.0004243,17 c -0.7746,0 -1.4684,-0.312 -2,-0.797 z M 11.0796,6.2969 10,10.289 l 2.1796,0 z M 9.898824,5 l 2.3146,0 2.91,9 -1.91,0 -0.609,-2 -3.0766997,0 -0.6171,2 -1.9102,0 z M 6.0004243,3 c -1.0193228,-1.709e-4 -1.8757271,0.7662125 -1.9883,1.7793 l -1,8.9997 c -0.1316098,1.184951 0.7960628,2.221193 1.9883,2.221 l 11.9999997,0 c 1.192117,1.4e-5 2.119597,-1.036168 1.988,-2.221 l -1,-8.9997 C 17.875864,3.7663264 17.019632,2.999982 16.000424,3 Z"/>
 </g>
</svg>
