<svg xmlns="http://www.w3.org/2000/svg" width="22" height="22" version="1.1">
 <defs>
  <style id="current-color-scheme" type="text/css">
   .ColorScheme-Text { color:#e6e6fa; } .ColorScheme-Highlight { color:#4285f4; }
  </style>
 </defs>
 <path style="fill:currentColor" class="ColorScheme-Text" d="M 3.8007813,8 C 3.3575812,8 3,8.3770191 3,8.8457031 V 18.154297 C 3,18.622981 3.3575812,19 3.8007813,19 H 18.199219 C 18.642419,19 19,18.622981 19,18.154297 V 8.8457031 C 19,8.3770191 18.642419,8 18.199219,8 Z M 7.5,10 A 3.5,3.5 0 0 1 11,13.5 3.5,3.5 0 0 1 14.5,10 3.5,3.5 0 0 1 18,13.5 3.5,3.5 0 0 1 14.5,17 3.5,3.5 0 0 1 11,13.5 3.5,3.5 0 0 1 7.5,17 3.5,3.5 0 0 1 4,13.5 3.5,3.5 0 0 1 7.5,10 Z m 0,2 A 1.5,1.5 0 0 0 6,13.5 1.5,1.5 0 0 0 7.5,15 1.5,1.5 0 0 0 9,13.5 1.5,1.5 0 0 0 7.5,12 Z m 7,0 A 1.5,1.5 0 0 0 13,13.5 1.5,1.5 0 0 0 14.5,15 1.5,1.5 0 0 0 16,13.5 1.5,1.5 0 0 0 14.5,12 Z"/>
 <path style="fill:currentColor" class="ColorScheme-Text" d="M 3.8007813,3 C 3.3575812,3 3,3.3192878 3,3.7148438 V 7.2851562 C 3,7.6807123 3.3575812,8 3.8007813,8 H 18.199219 C 18.642419,8 19,7.6807122 19,7.2851562 V 3.7148438 C 19,3.3192878 18.642419,3 18.199219,3 Z M 4.8710938,4 H 17.128906 C 17.61144,4 18,4.3018313 18,4.6757812 V 6.3242188 C 18,6.6981687 17.61144,7 17.128906,7 H 4.8710938 C 4.3885597,7 4,6.6981687 4,6.3242188 V 4.6757812 C 4,4.3018312 4.3885597,4 4.8710938,4 Z M 5.5,5 A 0.5,0.5 0 0 0 5,5.5 0.5,0.5 0 0 0 5.5,6 0.5,0.5 0 0 0 6,5.5 0.5,0.5 0 0 0 5.5,5 Z m 2,0 A 0.5,0.5 0 0 0 7,5.5 0.5,0.5 0 0 0 7.5,6 0.5,0.5 0 0 0 8,5.5 0.5,0.5 0 0 0 7.5,5 Z m 2,0 A 0.5,0.5 0 0 0 9,5.5 0.5,0.5 0 0 0 9.5,6 0.5,0.5 0 0 0 10,5.5 0.5,0.5 0 0 0 9.5,5 Z M 16,5 v 1 h 1 V 5 Z"/>
</svg>
