<svg xmlns="http://www.w3.org/2000/svg" width="22" height="22" version="1.1">
 <defs>
  <style id="current-color-scheme" type="text/css">
   .ColorScheme-Text { color:#e6e6fa; } .ColorScheme-Highlight { color:#4285f4; }
  </style>
 </defs>
 <path style="fill:currentColor" class="ColorScheme-Text" d="m6.3482 3a0.25823 0.25823 0 0 0 -0.2542 0.2623v1.5674c-0.6493 0.1087-1.156 0.6154-1.2648 1.2647h-1.5674a0.25823 0.25823 0 1 0 0 0.5164h1.5411v2.582h-1.5411a0.25823 0.25823 0 1 0 0 0.5164h1.5411v2.582h-1.5411a0.25823 0.25823 0 1 0 0 0.5164h1.5411v2.582h-1.5411a0.25823 0.25823 0 1 0 0 0.5164h1.5674c0.10876 0.64926 0.61551 1.156 1.2648 1.2648v1.5674a0.25823 0.25823 0 1 0 0.5164 0v-1.5411h2.582v1.5411a0.25823 0.25823 0 1 0 0.5164 0v-1.5411h2.582v1.5411a0.25823 0.25823 0 1 0 0.5164 0v-1.5411h2.582v1.5411a0.25823 0.25823 0 1 0 0.5164 0v-1.5674c0.64926-0.10876 1.156-0.61551 1.2648-1.2648h1.5674a0.25823 0.25823 0 0 0 0.26223 -0.26223 0.25823 0.25823 0 0 0 -0.26223 -0.25417h-1.5411v-2.582h1.5411a0.25823 0.25823 0 0 0 0.26223 -0.26223 0.25823 0.25823 0 0 0 -0.26223 -0.25417h-1.5411v-2.582h1.5411a0.25823 0.25823 0 0 0 0.263 -0.262 0.25823 0.25823 0 0 0 -0.262 -0.2542h-1.5411v-2.582h1.5411a0.25823 0.25823 0 0 0 0.262 -0.2622 0.25823 0.25823 0 0 0 -0.262 -0.2542h-1.5674c-0.109-0.6493-0.616-1.156-1.265-1.2648v-1.5674a0.25823 0.25823 0 0 0 -0.263 -0.2622 0.25823 0.25823 0 0 0 -0.254 0.2623v1.5411h-2.582v-1.5411a0.25823 0.25823 0 0 0 -0.262 -0.2623 0.25823 0.25823 0 0 0 -0.254 0.2623v1.5411h-2.582v-1.5411a0.25823 0.25823 0 0 0 -0.2624 -0.2623 0.25823 0.25823 0 0 0 -0.2542 0.2623v1.5411h-2.582v-1.5411a0.25823 0.25823 0 0 0 -0.2622 -0.2623z"/>
</svg>
