<svg xmlns="http://www.w3.org/2000/svg" width="22" height="22" version="1.1">
 <defs>
  <style id="current-color-scheme" type="text/css">
   .ColorScheme-Text { color:#e6e6fa; } .ColorScheme-Highlight { color:#4285f4; }
  </style>
 </defs>
 <rect style="fill:currentColor" class="ColorScheme-Text" width="3" height="4" x="14" y="15"/>
 <circle style="fill:currentColor" class="ColorScheme-Text" cx="15.5" cy="12.5" r="1.5"/>
 <path style="opacity:.3;stroke:currentColor;stroke-width:2;fill:none" class="ColorScheme-Text" d="m7 14a10 10 0 0 1 10 -10"/>
 <path style="opacity:.3;stroke:currentColor;stroke-width:2;fill:none" class="ColorScheme-Text" d="m11 14a6 6 0 0 1 6 -6"/>
</svg>
