<svg xmlns="http://www.w3.org/2000/svg" width="22" height="22" version="1.1">
 <defs>
  <style id="current-color-scheme" type="text/css">
   .ColorScheme-Text { color:#e6e6fa; } .ColorScheme-Highlight { color:#4285f4; }
  </style>
 </defs>
 <path style="fill:currentColor" class="ColorScheme-Text" d="M 11 3 A 8 8 0 0 0 3 11 A 8 8 0 0 0 8 18.412 L 8 15.461 C 7.8458 15.477 7.6917 15.482 7.541 15.465 C 7.4126 15.45 7.3179 15.443 7.2305 15.443 C 7.1868 15.444 7.1556 15.437 7.0625 15.465 C 7.0515 15.468 7.0334 15.477 7.0195 15.482 A 6 6 0 0 1 5 11 A 6 6 0 0 1 7.2637 6.3047 C 7.0271 6.8241 6.8699 7.4921 6.8711 8.041 C 6.8723 8.5536 6.997 9.1604 7.1914 9.6465 C 7.2428 9.7748 7.3046 9.9474 7.4902 10.062 C 7.6758 10.179 7.8098 10.172 7.9961 10.193 C 8.158 10.212 8.4927 10.287 8.6406 10.338 C 10.13 10.85 10.83 12.556 10.131 13.984 C 10.128 13.99 10.124 13.995 10.121 14 L 11.805 14 L 11.713 13.727 C 11.174 12.096 12.124 10.507 13.795 10.225 C 13.942 10.2 14.089 10.19 14.238 10.193 C 15.277 10.218 16.301 10.912 16.676 11.91 C 16.706 11.99 16.727 12.05 16.746 12.098 C 16.756 12.122 16.766 12.142 16.777 12.166 C 16.784 12.179 16.788 12.19 16.799 12.209 C 16.804 12.219 16.812 12.231 16.822 12.246 C 16.829 12.256 16.843 12.269 16.857 12.285 A 6 6 0 0 1 16.189 14 L 18.412 14 A 8 8 0 0 0 19 11 A 8 8 0 0 0 11 3 z M 11 5 A 6 6 0 0 1 16.959 10.363 C 16.793 10.099 16.603 9.8455 16.367 9.6133 C 15.71 8.9622 14.909 8.5761 13.963 8.4492 C 13.822 8.4303 13.704 8.3958 13.512 8.4668 C 13.319 8.5372 13.225 8.6908 13.168 8.7871 C 13.086 8.926 12.618 9.4049 12.355 9.5723 C 11.612 10.047 10.34 10.048 9.5938 9.5723 C 8.7112 9.0102 8.2064 7.9074 8.3652 6.9355 C 8.4551 6.3855 8.6907 5.9083 9.0781 5.498 C 9.1585 5.4128 9.2184 5.3461 9.2676 5.291 C 9.2794 5.2778 9.2885 5.2611 9.2988 5.25 A 6 6 0 0 1 11 5 z M 7.7207 7.8301 L 7.7227 7.832 C 7.8277 8.4631 8.0808 8.998 8.5059 9.4902 C 8.36 9.4571 8.2182 9.4112 8.0879 9.3965 C 7.9418 9.3798 7.9347 9.3755 7.9473 9.3867 C 7.9425 9.3755 7.9444 9.379 7.9316 9.3496 C 7.7852 8.9834 7.6729 8.4118 7.6719 8.0371 C 7.6718 7.9817 7.7146 7.8966 7.7207 7.8301 z M 13.822 9.2285 C 13.832 9.2291 13.797 9.2361 13.855 9.2441 C 14.182 9.2878 14.381 9.5161 14.65 9.625 C 14.312 9.574 14.006 9.3791 13.66 9.4375 C 13.591 9.4487 13.571 9.5296 13.504 9.5449 C 13.606 9.4313 13.75 9.3445 13.822 9.2285 z M 12.248 10.396 C 11.669 10.867 11.208 11.452 10.973 12.113 C 10.75 11.475 10.329 10.887 9.7852 10.418 C 10.592 10.72 11.451 10.719 12.248 10.396 z"/>
 <path style="fill:currentColor" class="ColorScheme-Highlight" d="M 9,15 V 20 H 10 V 18.707 L 11.293,20 H 12 V 19.293 L 10.707,18 H 12 V 15 Z M 13,15 V 20 H 16 V 19 H 14 V 18 H 16 V 17 H 14 V 16 H 16 V 15 Z M 17,15 V 20 H 20 V 19 H 18 V 16 H 20 V 15 Z M 10,16 H 11 V 17 H 10 Z"/>
</svg>
