<svg xmlns="http://www.w3.org/2000/svg" width="22" height="22" version="1.1">
 <defs>
  <style id="current-color-scheme" type="text/css">
   .ColorScheme-Text { color:#e6e6fa; } .ColorScheme-Highlight { color:#4285f4; }
  </style>
 </defs>
 <path style="fill:currentColor" class="ColorScheme-Text" d="M 8.5,5 C 5.4624339,5 3,7.4624339 3,10.5 3.00244,10.720141 3.018091,10.939938 3.046875,11.158203 1.8250871,11.567585 1.0011893,12.711451 1,14 c 0,1.656854 1.3431458,3 3,3 l 14,0 c 1.656854,0 3,-1.343146 3,-3 C 20.9987,12.726732 20.193805,11.592982 18.992188,11.171875 18.996023,11.114646 18.998629,11.057341 19,11 19,8.790861 17.209139,7 15,7 14.335328,7.0015368 13.681516,7.1686818 13.097656,7.4863281 12.08199,5.9357523 10.353608,5.0010752 8.5,5 Z M 5.984375,7 C 6.537375,7 7,7.448 7,8 7,8.552 6.537375,9 5.984375,9 5.431375,9 5,8.552 5,8 5,7.448 5.432275,7 5.984375,7 Z M 11,8 l 0,0 3,5 -2,0 0,3 -2,0 0,-3 -2,0 z"/>
</svg>
