<svg xmlns="http://www.w3.org/2000/svg" width="22" height="22" version="1.1">
 <defs>
  <style id="current-color-scheme" type="text/css">
   .ColorScheme-Text { color:#e6e6fa; } .ColorScheme-Highlight { color:#4285f4; }
  </style>
 </defs>
 <g transform="translate(-545 401.01)">
  <path style="fill:currentColor" class="ColorScheme-Text" d="m549-398.01v8.6035c-0.00024 4.9478 7 7.3965 7 7.3965s6.9998-2.4486 7-7.3965v-8.6035h-14zm2 2h5v5h5v2.1992c-0.00027 3.6124-5 4.8008-5 4.8008v-7h-5v-5z"/>
 </g>
 <circle style="fill:currentColor" class="ColorScheme-Highlight" cx="19" cy="18" r="2"/>
</svg>
