<svg xmlns="http://www.w3.org/2000/svg" width="22" height="22" version="1.1">
 <defs>
  <style id="current-color-scheme" type="text/css">
   .ColorScheme-Text { color:#e6e6fa; } .ColorScheme-Highlight { color:#4285f4; }
  </style>
 </defs>
 <path style="fill:currentColor" class="ColorScheme-Text" d="M 16.5 5 A 3.5 3.5 0 0 0 13.033203 8.0429688 L 11.474609 11.039062 A 3 3 0 0 0 11 11 A 3 3 0 0 0 8.9199219 11.841797 L 7.9746094 11.369141 A 3 3 0 0 0 8 11 A 3 3 0 0 0 5 8 A 3 3 0 0 0 2 11 A 3 3 0 0 0 5 14 A 3 3 0 0 0 7.0800781 13.158203 L 8.0253906 13.630859 A 3 3 0 0 0 8 14 A 3 3 0 0 0 11 17 A 3 3 0 0 0 14 14.017578 L 17.666016 11.796875 A 3.5 3.5 0 0 0 20 8.5 A 3.5 3.5 0 0 0 16.5 5 z M 16.5 6 A 2.5 2.5 0 0 1 19 8.5 A 2.5 2.5 0 0 1 16.5 11 A 2.5 2.5 0 0 1 14 8.5 A 2.5 2.5 0 0 1 16.5 6 z M 16.5 7 A 1.5 1.5 0 0 0 15 8.5 A 1.5 1.5 0 0 0 16.5 10 A 1.5 1.5 0 0 0 18 8.5 A 1.5 1.5 0 0 0 16.5 7 z M 5 9 A 2 2 0 0 1 6.9941406 10.878906 L 5.4472656 10.105469 A 1.0001 1.0001 0 0 0 4.9648438 9.9941406 A 1.0001 1.0001 0 0 0 4.5527344 11.894531 L 6.1015625 12.667969 A 2 2 0 0 1 5 13 A 2 2 0 0 1 3 11 A 2 2 0 0 1 5 9 z M 11 12 A 2 2 0 0 1 13 14 A 2 2 0 0 1 11 16 A 2 2 0 0 1 9.0058594 14.121094 L 10.552734 14.894531 A 1.0001163 1.0001163 0 1 0 11.447266 13.105469 L 9.8984375 12.332031 A 2 2 0 0 1 11 12 z"/>
</svg>
