<svg xmlns="http://www.w3.org/2000/svg" width="22" height="22" version="1">
 <defs>
  <style id="current-color-scheme" type="text/css">
   .ColorScheme-Text { color:#e6e6fa; } .ColorScheme-Highlight { color:#4285f4; }
  </style>
 </defs>
 <path style="fill:currentColor" class="ColorScheme-Text" d="m11 3a8 8 0 0 0 -8 8 8 8 0 0 0 8 8 8 8 0 0 0 8 -8 8 8 0 0 0 -8 -8zm0 2c3.3137 0 6 2.6863 6 6-0.0026 1.7042-0.7298 3.3268-2 4.4629v-6.463h-2v2.5 5.1504c-0.642 0.23-1.318 0.348-2 0.35-3.3137 0-6-2.686-6-6 0-3.3137 2.6863-6 6-6zm2 6.5-2.5-1.75-2.5-1.75v3.5 3.5l2.5-1.75 2.5-1.75z"/>
</svg>
