<svg xmlns="http://www.w3.org/2000/svg" width="16" height="16" version="1.1">
 <path style="fill:#e6e6fa" d="M 1,1 V 3 H 15 V 1 Z M 1,5 V 7 H 9 V 5 Z M 1,9 V 11 H 9 V 9 Z M 1,13 V 15 H 15 V 13 Z"/>
</svg>
