<svg xmlns="http://www.w3.org/2000/svg" width="16" height="16" version="1.1">
 <path style="fill:#e6e6fa" d="M 10,14 A 2,2 0 0 1 8,16 2,2 0 0 1 6,14 2,2 0 0 1 8,12 2,2 0 0 1 10,14 Z"/>
 <path style="fill:#e6e6fa" d="M 7,0 V 7 L 3.5,3.5 2,5 8,11 14,5 12.5,3.5 9,7 V 0 Z"/>
</svg>
