<svg xmlns="http://www.w3.org/2000/svg" width="24" height="24" version="1.1">
 <defs>
  <style id="current-color-scheme" type="text/css">
   .ColorScheme-Text { color:#e6e6fa; } .ColorScheme-Highlight { color:#4285f4; }
  </style>
 </defs>
 <g transform="translate(4,4)">
  <path style="fill:currentColor" class="ColorScheme-Text" d="M 14,1 V 3 H 16 V 1 Z M 14,3 H 0 V 5 H 1 V 15 H 5 V 5 H 9 V 15 H 13 V 5 H 14 Z"/>
 </g>
</svg>
