<svg xmlns="http://www.w3.org/2000/svg" width="24" height="24" version="1.1">
 <defs>
  <style id="current-color-scheme" type="text/css">
   .ColorScheme-Text { color:#e6e6fa; } .ColorScheme-Highlight { color:#4285f4; }
  </style>
 </defs>
 <path style="fill:currentColor" class="ColorScheme-Text" d="M 9,5 V 7 H 4 V 11 H 9 V 13 H 4 V 17 H 9 V 19 H 11 V 5 Z M 13,5 V 19 H 15 V 17 H 20 V 13 H 15 V 11 H 20 V 7 H 15 V 5 Z"/>
</svg>
