<svg xmlns="http://www.w3.org/2000/svg" width="24" height="24" version="1.1">
 <defs>
  <style id="current-color-scheme" type="text/css">
   .ColorScheme-Text { color:#e6e6fa; } .ColorScheme-Highlight { color:#4285f4; }
  </style>
 </defs>
 <g transform="translate(4,4)">
  <path style="fill:currentColor" class="ColorScheme-Text" d="M 11,0 V 6 H 14 C 16,6 16,4 16,4 16,4 16,2.709 14.828,2.184 14.828,2.184 15,2 15,1.5 15,1.5 15,0 13.5,0 Z M 12,1 H 13.5 C 14,1 14,1.5 14,1.5 14,1.5 14,2 13.5,2 H 12 Z M 12,3 H 14 C 15,3 15,4 15,4 15,4 15,5 14,5 H 12 Z M 7,1 2,15 H 4.5 L 5.5625,12 H 10.438 L 11.5,15 H 14.25 L 9,1 Z M 8,5 9.75,10 H 6.25 Z"/>
 </g>
</svg>
