<svg xmlns="http://www.w3.org/2000/svg" width="24" height="24" version="1.1">
 <defs>
  <style id="current-color-scheme" type="text/css">
   .ColorScheme-Text { color:#e6e6fa; } .ColorScheme-Highlight { color:#4285f4; }
  </style>
 </defs>
 <g transform="translate(4,4)">
  <path style="fill:currentColor" class="ColorScheme-Text" d="M 0,2.5 V 5 C 0,9.155 3.345,12.5 7.5,12.5 11.655,12.5 15,9.155 15,5 V 2.5 C 15,2 14.5,2 14.5,2 14.5,2 14,2 14,2.5 V 4 C 14,8.155 11.101,11.5 7.5,11.5 3.899,11.5 1,8.155 1,4 V 2.5 C 1,2 0.5,2 0.5,2 0.5,2 0,2 0,2.5 Z"/>
  <path style="fill:currentColor" class="ColorScheme-Text" d="M 5,9 H 10 V 14 H 5 Z"/>
 </g>
</svg>
