<svg xmlns="http://www.w3.org/2000/svg" width="24" height="24" version="1.1">
 <defs>
  <style id="current-color-scheme" type="text/css">
   .ColorScheme-Text { color:#e6e6fa; } .ColorScheme-Highlight { color:#4285f4; }
  </style>
 </defs>
 <g transform="translate(4,4)">
  <path style="fill:currentColor" class="ColorScheme-Text" d="M 3,3 H 0 V 0 H 3 Z M 4,10 V 4 H 10 Z M 16,2 H 12 V 1 H 16 Z M 2,16 H 1 V 12 H 2 Z M 10,2 H 6 V 1 H 10 Z M 2,10 H 1 V 6 H 2 Z"/>
 </g>
</svg>
